Databending - web scraping Avatar: The Last Airbender
…
tibble::enframe quite easily turns our blob of text into a nice tibble. There is still more cleaning required, but getting your data into a tibble often makes your life easier. All of your favorite dplyr functions like filter and mutate work nicely with tibbles.

We scraped more data than we need, so we will do some filtering. We only want the original Avatar data, not Legend of Korra (although maybe I should scrape that later), so we’ll just get the first 70 rows. There are some rows that contain more data than just single chapters (len < 50), so we’ll get rid of those as well.

Lastly, we’ll clean up the chapter column with some stringr functions and filter out a couple of bonus episodes that we don’t really want.

# to see rows with too much text that are actually many chapters

chapters %>% 
  enframe(name = "row_num", value = "chapter") %>% 
  filter(row_num %in% 1:70) %>%
  mutate(len = str_length(chapter))

# A tibble: 70 x 3
   row_num chapter                                                 len
     <int> <chr>                                                 <int>
 1       1 "\n0\n\n\"Unaired pilot\"\nBook One: Water\n\n1\n\n\~  5743
 2       2 "\"Unaired pilot\"\n"                                    16
 3       3 "\n1\n\n\"The Boy in the Iceberg\"\n2\n\n\"The Avata~   278
 4       4 "\"The Boy in the Iceberg\"\n"                           25
 5       5 "\"The Avatar Returns\"\n"                               21
 6       6 "\"The Southern Air Temple\"\n"                          26
 7       7 "\"The Warriors of Kyoshi\"\n"                           25
 8       8 "\"The King of Omashu\"\n"                               21
 9       9 "\"Imprisoned\"\n"                                       13
10      10 "\"Winter Solstice, Part 1: The Spirit World\"\n"        44
# ... with 60 more rows

chapters <- chapters %>% 
  enframe(name = "row_num", value = "chapter") %>% 
  filter(row_num %in% 1:70) %>% 
  mutate(len = str_length(chapter)) %>% 
  filter(len < 50) %>% 
  mutate(chapter = str_remove_all(chapter, pattern = "\""),
         chapter = str_trim(chapter, side = "both"),
         chapter = str_remove_all(chapter, " \\(commentary\\)")) %>% 
  filter( !(chapter %in% c("Unaired pilot", "Escape from the Spirit World")) )

chapters

# A tibble: 61 x 3
   row_num chapter                                     len
     <int> <chr>                                     <int>
 1       4 The Boy in the Iceberg                       25
 2       5 The Avatar Returns                           21
 3       6 The Southern Air Temple                      26
 4       7 The Warriors of Kyoshi                       25
 5       8 The King of Omashu                           21
 6       9 Imprisoned                                   13
 7      10 Winter Solstice, Part 1: The Spirit World    44
 8      11 Winter Solstice, Part 2: Avatar Roku         39
 9      12 The Waterbending Scroll                      26
10      13 Jet                                           6
# ... with 51 more rows
…
text <- iceberg %>% 
  html_nodes("table.wikitable") %>% 
  html_table() %>% 
  pluck(2) %>% 
  simplify() %>% 
  enframe(value = "value2") %>% 
  mutate(chapter2 = "https://avatar.fandom.com/wiki/Transcript:The_Boy_in_the_Iceberg") %>% 
  select(-name)

iceberg2 <- bind_cols(characters, text) %>% 
  rename(character = value1, text = value2)

iceberg2

# A tibble: 223 x 4
   character chapter1            text               chapter2          
   <chr>     <chr>               <chr>              <chr>             
 1 "Katara"  https://avatar.fan~ "Water. Earth. Fi~ https://avatar.fa~
 2 ""        https://avatar.fan~ "As the title car~ https://avatar.fa~
 3 "Sokka"   https://avatar.fan~ "It's not getting~ https://avatar.fa~
 4 ""        https://avatar.fan~ "The shot pans qu~ https://avatar.fa~
 5 "Katara"  https://avatar.fan~ "[Happily surpris~ https://avatar.fa~
 6 "Sokka"   https://avatar.fan~ "[Close-up of Sok~ https://avatar.fa~
 7 ""        https://avatar.fan~ "Behind Sokka, Ka~ https://avatar.fa~
 8 "Katara"  https://avatar.fan~ "[Struggling with~ https://avatar.fa~
 9 ""        https://avatar.fan~ "The bubble conta~ https://avatar.fa~
10 "Katara"  https://avatar.fan~ "[Exclaims indign~ https://avatar.fa~
# ... with 213 more rows
…
text2 <- returns %>% 
  html_nodes("table.wikitable") %>% 
  html_table() %>% 
  pluck(2) %>% 
  simplify() %>% 
  enframe(value = "value2") %>% 
  mutate(chapter2 = "https://avatar.fandom.com/wiki/Transcript:The_Avatar_Returns") %>% 
  select(-name)

returns2 <- bind_cols(characters2, text2) %>% 
  rename(character = value1, text = value2)

returns2

# A tibble: 182 x 4
   character  chapter1            text              chapter2          
   <chr>      <chr>               <chr>             <chr>             
 1 "Katara"   https://avatar.fan~ Water. Earth. Fi~ https://avatar.fa~
 2 ""         https://avatar.fan~ The episode open~ https://avatar.fa~
 3 "Village ~ https://avatar.fan~ [Joyfully.] Yay!~ https://avatar.fa~
 4 ""         https://avatar.fan~ Some of them run~ https://avatar.fa~
 5 "Sokka"    https://avatar.fan~ [Angrily.] I kne~ https://avatar.fa~
 6 "Katara"   https://avatar.fan~ [Protesting.] Aa~ https://avatar.fa~
 7 "Aang"     https://avatar.fan~ [Sheepishly, as ~ https://avatar.fa~
 8 "Kanna"    https://avatar.fan~ [Worriedly.] Kat~ https://avatar.fa~
 9 "Aang"     https://avatar.fan~ [Sorrowfully.] D~ https://avatar.fa~
10 "Sokka"    https://avatar.fan~ [Angry and trium~ https://avatar.fa~
# ... with 172 more rows
…
13.91 sec elapsed

All of them worked great, except for something weird that happened with The Tales of Ba Sing Se chapter. characters_all has one too many rows for some reason, and in transcripts_all the value column created from using enframe is a list-column instead of a character vector like all of the others.

characters_all[[33]]

# A tibble: 178 x 3
    name value    chapter                                             
   <int> <chr>    <glue>                                              
 1     1 ""       https://avatar.fandom.com/wiki/Transcript:The_Tales~
 2     2 "Katara" https://avatar.fandom.com/wiki/Transcript:The_Tales~
 3     3 ""       https://avatar.fandom.com/wiki/Transcript:The_Tales~
 4     4 "Toph"   https://avatar.fandom.com/wiki/Transcript:The_Tales~
 5     5 "Katara" https://avatar.fandom.com/wiki/Transcript:The_Tales~
 6     6 "Toph"   https://avatar.fandom.com/wiki/Transcript:The_Tales~
 7     7 "Katara" https://avatar.fandom.com/wiki/Transcript:The_Tales~
 8     8 "Toph"   https://avatar.fandom.com/wiki/Transcript:The_Tales~
 9     9 "Katara" https://avatar.fandom.com/wiki/Transcript:The_Tales~
10    10 ""       https://avatar.fandom.com/wiki/Transcript:The_Tales~
# ... with 168 more rows
…
transcripts_all2 <- transcripts_all %>% 
  modify_at(33, ~ unnest(.x, cols = value)) %>% 
  bind_rows()

Everything matches up now, so we’ll bind the character and transcript data together.

full_transcript <- bind_cols(
  characters_all2 %>% select(character = value, chapter1 = chapter),
  transcripts_all2 %>% select(text = value, chapter2 = chapter)
  )

full_transcript

# A tibble: 12,984 x 4
   character chapter1             text             chapter2           
   <chr>     <glue>               <chr>            <glue>             
 1 ""        https://avatar.fand~ The episode beg~ https://avatar.fan~
 2 "Aang"    https://avatar.fand~ [Excitedly.] Wa~ https://avatar.fan~
 3 "Katara"  https://avatar.fand~ [Cautiously.] A~ https://avatar.fan~
 4 "Aang"    https://avatar.fand~ [Smiling broadl~ https://avatar.fan~
 5 "Katara"  https://avatar.fand~ [Cautiously.] I~ https://avatar.fan~
 6 "Aang"    https://avatar.fand~ [Happily.] I kn~ https://avatar.fan~
 7 ""        https://avatar.fand~ Aang jumps off ~ https://avatar.fan~
 8 "Aang"    https://avatar.fand~ [Cheerfully.] W~ https://avatar.fan~
 9 "Sokka"   https://avatar.fand~ [Grunting sleep~ https://avatar.fan~
10 ""        https://avatar.fand~ Sokka turns aro~ https://avatar.fan~
# ... with 12,974 more rows
…
Finally, we’ll split up the text column into character_words and scene_description. We’ll have to use some more stringr functions and some regular expressions, but it won’t be too bad.

dat_transcript <- dat %>% 
  mutate(scene_description = str_extract_all(text, pattern = "\\[[^\\]]+\\]"),
         character_words = str_remove_all(text, pattern = "\\[[^\\]]+\\]"),
         character_words = ifelse(character == "Scene Description",
                                  NA_character_, 
                                  str_trim(character_words))) %>% 
  select(id, book, book_num, chapter, chapter_num,
         character, full_text = text, character_words, scene_description)

dat_transcript

# A tibble: 13,389 x 9
      id book  book_num chapter chapter_num character full_text
   <int> <chr>    <dbl> <chr>         <int> <chr>     <chr>    
 1     1 Water        1 The Bo~           1 Katara    "Water. ~
 2     2 Water        1 The Bo~           1 Scene De~ "As the ~
 3     3 Water        1 The Bo~           1 Sokka     "It's no~
 4     4 Water        1 The Bo~           1 Scene De~ "The sho~
 5     5 Water        1 The Bo~           1 Katara    "[Happil~
 6     6 Water        1 The Bo~           1 Sokka     "[Close-~
 7     7 Water        1 The Bo~           1 Scene De~ "Behind ~
 8     8 Water        1 The Bo~           1 Katara    "[Strugg~
 9     9 Water        1 The Bo~           1 Scene De~ "The bub~
10    10 Water        1 The Bo~           1 Katara    "[Exclai~
# ... with 13,379 more rows, and 2 more variables:
#   character_words <chr>, scene_description <list>
…
