Five tips for working with computationally expensive operations in R
…
# get the training and testing sets from the data split
dat_train <- training(dat_split)
dat_test <- testing(dat_split)

# again, I won't go into the tidymodels stuff too much,
# but dat_split is an rsample rsplit object. 
dat_split

<Analysis/Assess/Total>
<40455/13485/53940>

dat_train

# A tibble: 40,455 x 10
   carat cut       color clarity depth table price     x     y     z
   <dbl> <ord>     <ord> <ord>   <dbl> <dbl> <int> <dbl> <dbl> <dbl>
 1 0.23  Ideal     E     SI2      61.5    55   326  3.95  3.98  2.43
 2 0.23  Good      E     VS1      56.9    65   327  4.05  4.07  2.31
 3 0.290 Premium   I     VS2      62.4    58   334  4.2   4.23  2.63
 4 0.24  Very Good J     VVS2     62.8    57   336  3.94  3.96  2.48
 5 0.26  Very Good H     SI1      61.9    55   337  4.07  4.11  2.53
 6 0.22  Fair      E     VS2      65.1    61   337  3.87  3.78  2.49
 7 0.3   Good      J     SI1      64      55   339  4.25  4.28  2.73
 8 0.23  Ideal     J     VS1      62.8    56   340  3.93  3.9   2.46
 9 0.22  Premium   F     SI1      60.4    61   342  3.88  3.84  2.33
10 0.31  Ideal     J     SI2      62.2    54   344  4.35  4.37  2.71
# ... with 40,445 more rows

dat_test

# A tibble: 13,485 x 10
   carat cut       color clarity depth table price     x     y     z
   <dbl> <ord>     <ord> <ord>   <dbl> <dbl> <int> <dbl> <dbl> <dbl>
 1  0.21 Premium   E     SI1      59.8    61   326  3.89  3.84  2.31
 2  0.31 Good      J     SI2      63.3    58   335  4.34  4.35  2.75
 3  0.24 Very Good I     VVS1     62.3    57   336  3.95  3.98  2.47
 4  0.23 Very Good H     VS1      59.4    61   338  4     4.05  2.39
 5  0.32 Premium   E     I1       60.9    58   345  4.38  4.42  2.68
 6  0.3  Ideal     I     SI2      62      54   348  4.31  4.34  2.68
 7  0.3  Good      J     SI1      63.4    54   351  4.23  4.29  2.7 
 8  0.3  Good      J     SI1      63.8    56   351  4.23  4.26  2.71
 9  0.3  Very Good J     VS2      62.2    57   357  4.28  4.3   2.67
10  0.23 Very Good F     VS1      60.9    57   357  3.96  3.99  2.42
# ... with 13,475 more rows
…
At this point, we can also create a grid of candidate hyperparameters with which to tune our decision tree. We can use this grid to train many models using our cross-validation folds and see which models turn out best with specific hyperparameters.

tree_grid <- grid_regular(
  cost_complexity(),
  tree_depth(),
  levels = 5
)

tree_grid

# A tibble: 25 x 2
   cost_complexity tree_depth
             <dbl>      <int>
 1    0.0000000001          1
 2    0.0000000178          1
 3    0.00000316            1
 4    0.000562              1
 5    0.1                   1
 6    0.0000000001          4
 7    0.0000000178          4
 8    0.00000316            4
 9    0.000562              4
10    0.1                   4
# ... with 15 more rows
…
